%YAML 1.1
%TAG !u! tag:unity3d.com,2011:
--- !u!114 &11400000
MonoBehaviour:
  m_ObjectHideFlags: 0
  m_CorrespondingSourceObject: {fileID: 0}
  m_PrefabInstance: {fileID: 0}
  m_PrefabAsset: {fileID: 0}
  m_GameObject: {fileID: 0}
  m_Enabled: 1
  m_EditorHideFlags: 0
  m_Script: {fileID: 11500000, guid: 1a13b41dd51aa3b4f821fb4ffd6535f0, type: 3}
  m_Name: HiSpeed Train-Economy
  m_EditorClassIdentifier: 
  speed: 300
  cost: 70
  mode: 0
  Class: 0
