%YAML 1.1
%TAG !u! tag:unity3d.com,2011:
--- !u!114 &11400000
MonoBehaviour:
  m_ObjectHideFlags: 0
  m_CorrespondingSourceObject: {fileID: 0}
  m_PrefabInstance: {fileID: 0}
  m_PrefabAsset: {fileID: 0}
  m_GameObject: {fileID: 0}
  m_Enabled: 1
  m_EditorHideFlags: 0
  m_Script: {fileID: 11500000, guid: 00a066b1a3a64014e8ebf246149a543a, type: 3}
  m_Name: Probe Neuroticism
  m_EditorClassIdentifier: 
  say: How much do you worry?
  subOptions: []
  trait: {fileID: 11400000, guid: 007305d42d0194c4d941a7ee3a6591fe, type: 2}
