%YAML 1.1
%TAG !u! tag:unity3d.com,2011:
--- !u!114 &11400000
MonoBehaviour:
  m_ObjectHideFlags: 0
  m_CorrespondingSourceObject: {fileID: 0}
  m_PrefabInstance: {fileID: 0}
  m_PrefabAsset: {fileID: 0}
  m_GameObject: {fileID: 0}
  m_Enabled: 1
  m_EditorHideFlags: 0
  m_Script: {fileID: 11500000, guid: dc1f11402778a2141baa5b90aa1160e7, type: 3}
  m_Name: Suggest Bali
  m_EditorClassIdentifier: 
  say: What do you think of <LOCATION>?
  subOptions: []
  location: {fileID: 11400000, guid: a1e885d96bc58be439de69660c3fb6fa, type: 2}
