%YAML 1.1
%TAG !u! tag:unity3d.com,2011:
--- !u!114 &11400000
MonoBehaviour:
  m_ObjectHideFlags: 0
  m_CorrespondingSourceObject: {fileID: 0}
  m_PrefabInstance: {fileID: 0}
  m_PrefabAsset: {fileID: 0}
  m_GameObject: {fileID: 0}
  m_Enabled: 1
  m_EditorHideFlags: 0
  m_Script: {fileID: 11500000, guid: 3eaebba266cc12d44bfee4dddb02b695, type: 3}
  m_Name: Eat at Fancy Restaurant
  m_EditorClassIdentifier: 
  timeToDo: 120
  cost: 150
  tags: 00000000
  openness: 70
  conscientiousness: 60
  extraversion: 60
  agreeableness: 40
  neuroticism: 40
