%YAML 1.1
%TAG !u! tag:unity3d.com,2011:
--- !u!114 &11400000
MonoBehaviour:
  m_ObjectHideFlags: 0
  m_CorrespondingSourceObject: {fileID: 0}
  m_PrefabInstance: {fileID: 0}
  m_PrefabAsset: {fileID: 0}
  m_GameObject: {fileID: 0}
  m_Enabled: 1
  m_EditorHideFlags: 0
  m_Script: {fileID: 11500000, guid: 3eaebba266cc12d44bfee4dddb02b695, type: 3}
  m_Name: Scuba diving
  m_EditorClassIdentifier: 
  timeToDo: 300
  cost: 300
  tags: 0100000004000000
  openness: 80
  conscientiousness: 80
  extraversion: 50
  agreeableness: 50
  neuroticism: 50
