%YAML 1.1
%TAG !u! tag:unity3d.com,2011:
--- !u!114 &11400000
MonoBehaviour:
  m_ObjectHideFlags: 0
  m_CorrespondingSourceObject: {fileID: 0}
  m_PrefabInstance: {fileID: 0}
  m_PrefabAsset: {fileID: 0}
  m_GameObject: {fileID: 0}
  m_Enabled: 1
  m_EditorHideFlags: 0
  m_Script: {fileID: 11500000, guid: 9af0c447216d0cd44a4c630c777df921, type: 3}
  m_Name: Madrid
  m_EditorClassIdentifier: 
  latLong:
    latitude: 40.424
    longitude: -3.705
  tags: 00000000
  landType: 0
  continent: 3
  sprite: {fileID: 21300000, guid: 7ffccc42604a1774584513ed31cad730, type: 3}
