%YAML 1.1
%TAG !u! tag:unity3d.com,2011:
--- !u!114 &11400000
MonoBehaviour:
  m_ObjectHideFlags: 0
  m_CorrespondingSourceObject: {fileID: 0}
  m_PrefabInstance: {fileID: 0}
  m_PrefabAsset: {fileID: 0}
  m_GameObject: {fileID: 0}
  m_Enabled: 1
  m_EditorHideFlags: 0
  m_Script: {fileID: 11500000, guid: b147849b081df684a8a28bc189f71dcd, type: 3}
  m_Name: Suggest eating at a fancy restaurant
  m_EditorClassIdentifier: 
  say: How about dinner at a fancy restaurant?
  subOptions: []
  activity: {fileID: 11400000, guid: ed5a8d0e7cb33d445949845d5f8d245d, type: 2}
